\relax 
\providecommand\hyper@newdestlabel[2]{}
\providecommand\HyperFirstAtBeginDocument{\AtBeginDocument}
\HyperFirstAtBeginDocument{\ifx\hyper@anchor\@undefined
\global\let\oldcontentsline\contentsline
\gdef\contentsline#1#2#3#4{\oldcontentsline{#1}{#2}{#3}}
\global\let\oldnewlabel\newlabel
\gdef\newlabel#1#2{\newlabelxx{#1}#2}
\gdef\newlabelxx#1#2#3#4#5#6{\oldnewlabel{#1}{{#2}{#3}}}
\AtEndDocument{\ifx\hyper@anchor\@undefined
\let\contentsline\oldcontentsline
\let\newlabel\oldnewlabel
\fi}
\fi}
\global\let\hyper@last\relax 
\gdef\HyperFirstAtBeginDocument#1{#1}
\providecommand\HyField@AuxAddToFields[1]{}
\providecommand\HyField@AuxAddToCoFields[2]{}
\providecommand \oddpage@label [2]{}
\@writefile{toc}{\@ifundefined {etoctocstyle}{\let \etoc@startlocaltoc \@gobble \let \etoc@settocdepth \@gobble \let \etoc@depthtag \@gobble \let \etoc@setlocaltop \@gobble }{}}
\@writefile{toc}{\contentsline {chapter}{\numberline {1}Hierarchical Index}{1}{chapter.1}\protected@file@percent }
\@writefile{lof}{\addvspace {10\p@ }}
\@writefile{lot}{\addvspace {10\p@ }}
\@writefile{toc}{\contentsline {section}{\numberline {1.1}Class Hierarchy}{1}{section.1.1}\protected@file@percent }
\@writefile{toc}{\contentsline {chapter}{\numberline {2}Class Index}{3}{chapter.2}\protected@file@percent }
\@writefile{lof}{\addvspace {10\p@ }}
\@writefile{lot}{\addvspace {10\p@ }}
\@writefile{toc}{\contentsline {section}{\numberline {2.1}Class List}{3}{section.2.1}\protected@file@percent }
\@writefile{toc}{\contentsline {chapter}{\numberline {3}File Index}{5}{chapter.3}\protected@file@percent }
\@writefile{lof}{\addvspace {10\p@ }}
\@writefile{lot}{\addvspace {10\p@ }}
\@writefile{toc}{\contentsline {section}{\numberline {3.1}File List}{5}{section.3.1}\protected@file@percent }
\@writefile{toc}{\contentsline {chapter}{\numberline {4}Class Documentation}{7}{chapter.4}\protected@file@percent }
\@writefile{lof}{\addvspace {10\p@ }}
\@writefile{lot}{\addvspace {10\p@ }}
\@writefile{toc}{\contentsline {section}{\numberline {4.1}Create\discretionary {\mbox  {\scriptsize  $\hookleftarrow  $}}{}{}Spawner Class Reference}{7}{section.4.1}\protected@file@percent }
\newlabel{class_create_spawner}{{4.1}{7}{Create\+Spawner Class Reference}{section.4.1}{}}
\@writefile{toc}{\contentsline {subsection}{\numberline {4.1.1}Member Function Documentation}{8}{subsection.4.1.1}\protected@file@percent }
\newlabel{class_create_spawner_aa069b394ea8491cee25189185c1a3689}{{4.1.1}{8}{Member Function Documentation}{subsection.4.1.1}{}}
\@writefile{toc}{\contentsline {subsubsection}{\numberline {4.1.1.1}Start()}{8}{subsubsection.4.1.1.1}\protected@file@percent }
\newlabel{class_create_spawner_a6f0b04f6382235c83d350a6e47d10ba1}{{4.1.1.1}{8}{\texorpdfstring {Start()}{Start()}}{subsubsection.4.1.1.1}{}}
\@writefile{toc}{\contentsline {subsubsection}{\numberline {4.1.1.2}Update()}{8}{subsubsection.4.1.1.2}\protected@file@percent }
\@writefile{toc}{\contentsline {subsection}{\numberline {4.1.2}Member Data Documentation}{8}{subsection.4.1.2}\protected@file@percent }
\newlabel{class_create_spawner_a29af3bcac97bc20304fa9b8100b823e4}{{4.1.2}{8}{Member Data Documentation}{subsection.4.1.2}{}}
\@writefile{toc}{\contentsline {subsubsection}{\numberline {4.1.2.1}decideObject}{8}{subsubsection.4.1.2.1}\protected@file@percent }
\newlabel{class_create_spawner_a23988c5579bd76ac90d8227ec0a43fc8}{{4.1.2.1}{8}{\texorpdfstring {decideObject}{decideObject}}{subsubsection.4.1.2.1}{}}
\@writefile{toc}{\contentsline {subsubsection}{\numberline {4.1.2.2}fTimeIntervals}{8}{subsubsection.4.1.2.2}\protected@file@percent }
\newlabel{class_create_spawner_abd751bb67e61569d25277903ee0a5602}{{4.1.2.2}{8}{\texorpdfstring {fTimeIntervals}{fTimeIntervals}}{subsubsection.4.1.2.2}{}}
\@writefile{toc}{\contentsline {subsubsection}{\numberline {4.1.2.3}fTimer}{8}{subsubsection.4.1.2.3}\protected@file@percent }
\newlabel{class_create_spawner_a73c953b8734857a9bb09e5fea4cafd76}{{4.1.2.3}{8}{\texorpdfstring {fTimer}{fTimer}}{subsubsection.4.1.2.3}{}}
\@writefile{toc}{\contentsline {subsubsection}{\numberline {4.1.2.4}goCreate1}{9}{subsubsection.4.1.2.4}\protected@file@percent }
\newlabel{class_create_spawner_a5cf66e4039952d95521c046363dcbace}{{4.1.2.4}{9}{\texorpdfstring {goCreate1}{goCreate1}}{subsubsection.4.1.2.4}{}}
\@writefile{toc}{\contentsline {subsubsection}{\numberline {4.1.2.5}goCreate2}{9}{subsubsection.4.1.2.5}\protected@file@percent }
\newlabel{class_create_spawner_a5b01b3f47ad1b0e0479cedf59dfbe8b2}{{4.1.2.5}{9}{\texorpdfstring {goCreate2}{goCreate2}}{subsubsection.4.1.2.5}{}}
\@writefile{toc}{\contentsline {subsubsection}{\numberline {4.1.2.6}goCreate3}{9}{subsubsection.4.1.2.6}\protected@file@percent }
\newlabel{class_create_spawner_a4a31df94b35186af4e31967567b78ccc}{{4.1.2.6}{9}{\texorpdfstring {goCreate3}{goCreate3}}{subsubsection.4.1.2.6}{}}
\@writefile{toc}{\contentsline {subsubsection}{\numberline {4.1.2.7}goCreate4}{9}{subsubsection.4.1.2.7}\protected@file@percent }
\newlabel{class_create_spawner_a1669c940c3c5aa90bb170b3e600a6fc4}{{4.1.2.7}{9}{\texorpdfstring {goCreate4}{goCreate4}}{subsubsection.4.1.2.7}{}}
\@writefile{toc}{\contentsline {subsubsection}{\numberline {4.1.2.8}goCreate5}{9}{subsubsection.4.1.2.8}\protected@file@percent }
\newlabel{class_create_spawner_a45a958a92302ff5d6a5ca82c2cd26879}{{4.1.2.8}{9}{\texorpdfstring {goCreate5}{goCreate5}}{subsubsection.4.1.2.8}{}}
\@writefile{toc}{\contentsline {subsubsection}{\numberline {4.1.2.9}goCreateAux}{9}{subsubsection.4.1.2.9}\protected@file@percent }
\newlabel{class_create_spawner_a4abf1e0739cf9c7eb5feb2d5c2b2c384}{{4.1.2.9}{9}{\texorpdfstring {goCreateAux}{goCreateAux}}{subsubsection.4.1.2.9}{}}
\@writefile{toc}{\contentsline {subsubsection}{\numberline {4.1.2.10}v3SpawnPosJitter}{10}{subsubsection.4.1.2.10}\protected@file@percent }
\@writefile{toc}{\contentsline {section}{\numberline {4.2}Main\discretionary {\mbox  {\scriptsize  $\hookleftarrow  $}}{}{}Menu Class Reference}{10}{section.4.2}\protected@file@percent }
\newlabel{class_main_menu}{{4.2}{10}{Main\+Menu Class Reference}{section.4.2}{}}
\@writefile{toc}{\contentsline {subsection}{\numberline {4.2.1}Detailed Description}{10}{subsection.4.2.1}\protected@file@percent }
\@writefile{toc}{\contentsline {subsection}{\numberline {4.2.2}Member Function Documentation}{10}{subsection.4.2.2}\protected@file@percent }
\newlabel{class_main_menu_a25eef84354513782c635e20755f4a40c}{{4.2.2}{10}{Member Function Documentation}{subsection.4.2.2}{}}
\@writefile{toc}{\contentsline {subsubsection}{\numberline {4.2.2.1}BackToMenu()}{10}{subsubsection.4.2.2.1}\protected@file@percent }
\newlabel{class_main_menu_a11d7e3cd6b90cf59659e03e830e02db5}{{4.2.2.1}{10}{\texorpdfstring {BackToMenu()}{BackToMenu()}}{subsubsection.4.2.2.1}{}}
\@writefile{toc}{\contentsline {subsubsection}{\numberline {4.2.2.2}PlayGame()}{11}{subsubsection.4.2.2.2}\protected@file@percent }
\newlabel{class_main_menu_a485db7cf60c0b93ecc87b9273bcce78b}{{4.2.2.2}{11}{\texorpdfstring {PlayGame()}{PlayGame()}}{subsubsection.4.2.2.2}{}}
\@writefile{toc}{\contentsline {subsubsection}{\numberline {4.2.2.3}QuitGame()}{11}{subsubsection.4.2.2.3}\protected@file@percent }
\@writefile{toc}{\contentsline {section}{\numberline {4.3}Score\discretionary {\mbox  {\scriptsize  $\hookleftarrow  $}}{}{}Function Class Reference}{11}{section.4.3}\protected@file@percent }
\newlabel{class_score_function}{{4.3}{11}{Score\+Function Class Reference}{section.4.3}{}}
\@writefile{toc}{\contentsline {subsection}{\numberline {4.3.1}Member Function Documentation}{11}{subsection.4.3.1}\protected@file@percent }
\newlabel{class_score_function_a1da3dee77b8796fc858658371e21b2da}{{4.3.1}{11}{Member Function Documentation}{subsection.4.3.1}{}}
\@writefile{toc}{\contentsline {subsubsection}{\numberline {4.3.1.1}Start()}{11}{subsubsection.4.3.1.1}\protected@file@percent }
\newlabel{class_score_function_a355bc669af90c03b42a611c01ade5587}{{4.3.1.1}{11}{\texorpdfstring {Start()}{Start()}}{subsubsection.4.3.1.1}{}}
\@writefile{toc}{\contentsline {subsubsection}{\numberline {4.3.1.2}Update()}{12}{subsubsection.4.3.1.2}\protected@file@percent }
\@writefile{toc}{\contentsline {subsection}{\numberline {4.3.2}Member Data Documentation}{12}{subsection.4.3.2}\protected@file@percent }
\newlabel{class_score_function_afc02183f1c559ba0197f6cc416a944cb}{{4.3.2}{12}{Member Data Documentation}{subsection.4.3.2}{}}
\@writefile{toc}{\contentsline {subsubsection}{\numberline {4.3.2.1}textDisplay}{12}{subsubsection.4.3.2.1}\protected@file@percent }
\@writefile{toc}{\contentsline {section}{\numberline {4.4}Serious\discretionary {\mbox  {\scriptsize  $\hookleftarrow  $}}{}{}Game Class Reference}{12}{section.4.4}\protected@file@percent }
\newlabel{class_serious_game}{{4.4}{12}{Serious\+Game Class Reference}{section.4.4}{}}
\@writefile{toc}{\contentsline {subsection}{\numberline {4.4.1}Member Data Documentation}{12}{subsection.4.4.1}\protected@file@percent }
\newlabel{class_serious_game_a964267b012c723b48ee25ce2b9bec267}{{4.4.1}{12}{Member Data Documentation}{subsection.4.4.1}{}}
\@writefile{toc}{\contentsline {subsubsection}{\numberline {4.4.1.1}score}{12}{subsubsection.4.4.1.1}\protected@file@percent }
\newlabel{class_serious_game_ae3f2f2b6d871519e77bc69857565ea20}{{4.4.1.1}{12}{\texorpdfstring {score}{score}}{subsubsection.4.4.1.1}{}}
\@writefile{toc}{\contentsline {subsubsection}{\numberline {4.4.1.2}time}{13}{subsubsection.4.4.1.2}\protected@file@percent }
\@writefile{toc}{\contentsline {section}{\numberline {4.5}Show\discretionary {\mbox  {\scriptsize  $\hookleftarrow  $}}{}{}High\discretionary {\mbox  {\scriptsize  $\hookleftarrow  $}}{}{}Score Class Reference}{13}{section.4.5}\protected@file@percent }
\newlabel{class_show_high_score}{{4.5}{13}{Show\+High\+Score Class Reference}{section.4.5}{}}
\@writefile{toc}{\contentsline {subsection}{\numberline {4.5.1}Member Function Documentation}{13}{subsection.4.5.1}\protected@file@percent }
\newlabel{class_show_high_score_a669e894419d2952bda7a63f140fdb5e6}{{4.5.1}{13}{Member Function Documentation}{subsection.4.5.1}{}}
\@writefile{toc}{\contentsline {subsubsection}{\numberline {4.5.1.1}FillListas()}{14}{subsubsection.4.5.1.1}\protected@file@percent }
\newlabel{class_show_high_score_a1190789e098660bd6f49ee73632ee352}{{4.5.1.1}{14}{\texorpdfstring {FillListas()}{FillListas()}}{subsubsection.4.5.1.1}{}}
\@writefile{toc}{\contentsline {subsubsection}{\numberline {4.5.1.2}OnEnable()}{14}{subsubsection.4.5.1.2}\protected@file@percent }
\newlabel{class_show_high_score_afff137d88c679fbf856007ba35b2935e}{{4.5.1.2}{14}{\texorpdfstring {OnEnable()}{OnEnable()}}{subsubsection.4.5.1.2}{}}
\@writefile{toc}{\contentsline {subsubsection}{\numberline {4.5.1.3}ReadAndShowScore()}{14}{subsubsection.4.5.1.3}\protected@file@percent }
\newlabel{class_show_high_score_a61c268b70d8c6d45d941fc4605c166b9}{{4.5.1.3}{14}{\texorpdfstring {ReadAndShowScore()}{ReadAndShowScore()}}{subsubsection.4.5.1.3}{}}
\@writefile{toc}{\contentsline {subsubsection}{\numberline {4.5.1.4}ShowTopFive()}{14}{subsubsection.4.5.1.4}\protected@file@percent }
\@writefile{toc}{\contentsline {subsection}{\numberline {4.5.2}Member Data Documentation}{14}{subsection.4.5.2}\protected@file@percent }
\newlabel{class_show_high_score_a34ecbc525b456187838d86773cdba75c}{{4.5.2}{14}{Member Data Documentation}{subsection.4.5.2}{}}
\@writefile{toc}{\contentsline {subsubsection}{\numberline {4.5.2.1}names}{14}{subsubsection.4.5.2.1}\protected@file@percent }
\newlabel{class_show_high_score_a7b68cf0a34f7d4b87432c5526fa8eaa4}{{4.5.2.1}{14}{\texorpdfstring {names}{names}}{subsubsection.4.5.2.1}{}}
\@writefile{toc}{\contentsline {subsubsection}{\numberline {4.5.2.2}scores}{14}{subsubsection.4.5.2.2}\protected@file@percent }
\newlabel{class_show_high_score_af35890574d537251e889d9842cb3bbe4}{{4.5.2.2}{14}{\texorpdfstring {scores}{scores}}{subsubsection.4.5.2.2}{}}
\@writefile{toc}{\contentsline {subsubsection}{\numberline {4.5.2.3}text\_aux}{15}{subsubsection.4.5.2.3}\protected@file@percent }
\newlabel{class_show_high_score_a8c9771295500a6da79256358d36fdc80}{{4.5.2.3}{15}{\texorpdfstring {text\_aux}{text\_aux}}{subsubsection.4.5.2.3}{}}
\@writefile{toc}{\contentsline {subsubsection}{\numberline {4.5.2.4}txtNamesNscore}{15}{subsubsection.4.5.2.4}\protected@file@percent }
\@writefile{toc}{\contentsline {section}{\numberline {4.6}Sub\discretionary {\mbox  {\scriptsize  $\hookleftarrow  $}}{}{}Game1 Class Reference}{15}{section.4.6}\protected@file@percent }
\newlabel{class_sub_game1}{{4.6}{15}{Sub\+Game1 Class Reference}{section.4.6}{}}
\@writefile{toc}{\contentsline {subsection}{\numberline {4.6.1}Member Function Documentation}{16}{subsection.4.6.1}\protected@file@percent }
\newlabel{class_sub_game1_affa5682cf4e20fc0907a5341d1734b40}{{4.6.1}{16}{Member Function Documentation}{subsection.4.6.1}{}}
\@writefile{toc}{\contentsline {subsubsection}{\numberline {4.6.1.1}OnCollisionEnter()}{16}{subsubsection.4.6.1.1}\protected@file@percent }
\newlabel{class_sub_game1_aacabd23745e1e1304fd9cf71c048bfec}{{4.6.1.1}{16}{\texorpdfstring {OnCollisionEnter()}{OnCollisionEnter()}}{subsubsection.4.6.1.1}{}}
\@writefile{toc}{\contentsline {subsubsection}{\numberline {4.6.1.2}start()}{16}{subsubsection.4.6.1.2}\protected@file@percent }
\newlabel{class_sub_game1_ae7c32efde00c4a116c4256de60044c3d}{{4.6.1.2}{16}{\texorpdfstring {start()}{start()}}{subsubsection.4.6.1.2}{}}
\@writefile{toc}{\contentsline {subsubsection}{\numberline {4.6.1.3}WaitForSec\_right()}{16}{subsubsection.4.6.1.3}\protected@file@percent }
\newlabel{class_sub_game1_ad4fc06a6d458dc123545c3e204878b04}{{4.6.1.3}{16}{\texorpdfstring {WaitForSec\_right()}{WaitForSec\_right()}}{subsubsection.4.6.1.3}{}}
\@writefile{toc}{\contentsline {subsubsection}{\numberline {4.6.1.4}WaitForSec\_wrong()}{16}{subsubsection.4.6.1.4}\protected@file@percent }
\@writefile{toc}{\contentsline {subsection}{\numberline {4.6.2}Member Data Documentation}{17}{subsection.4.6.2}\protected@file@percent }
\newlabel{class_sub_game1_a765200c64f31a51c986238c58b12512b}{{4.6.2}{17}{Member Data Documentation}{subsection.4.6.2}{}}
\@writefile{toc}{\contentsline {subsubsection}{\numberline {4.6.2.1}tag\_right}{17}{subsubsection.4.6.2.1}\protected@file@percent }
\newlabel{class_sub_game1_a9a74c1068d8e123a3c531cc3e649a76e}{{4.6.2.1}{17}{\texorpdfstring {tag\_right}{tag\_right}}{subsubsection.4.6.2.1}{}}
\@writefile{toc}{\contentsline {subsubsection}{\numberline {4.6.2.2}tag\_wrong}{17}{subsubsection.4.6.2.2}\protected@file@percent }
\newlabel{class_sub_game1_a2cbab1f78a5371cca78dbca064729972}{{4.6.2.2}{17}{\texorpdfstring {tag\_wrong}{tag\_wrong}}{subsubsection.4.6.2.2}{}}
\@writefile{toc}{\contentsline {subsubsection}{\numberline {4.6.2.3}uiObject\_right}{17}{subsubsection.4.6.2.3}\protected@file@percent }
\newlabel{class_sub_game1_a4c31f75f1e255fae4f32961ce6ef5999}{{4.6.2.3}{17}{\texorpdfstring {uiObject\_right}{uiObject\_right}}{subsubsection.4.6.2.3}{}}
\@writefile{toc}{\contentsline {subsubsection}{\numberline {4.6.2.4}uiObject\_wrong}{17}{subsubsection.4.6.2.4}\protected@file@percent }
\@writefile{toc}{\contentsline {section}{\numberline {4.7}Sub\discretionary {\mbox  {\scriptsize  $\hookleftarrow  $}}{}{}Game2 Class Reference}{17}{section.4.7}\protected@file@percent }
\newlabel{class_sub_game2}{{4.7}{17}{Sub\+Game2 Class Reference}{section.4.7}{}}
\@writefile{toc}{\contentsline {subsection}{\numberline {4.7.1}Member Function Documentation}{18}{subsection.4.7.1}\protected@file@percent }
\newlabel{class_sub_game2_adb0e4b2812075cc511a0107c1245ae26}{{4.7.1}{18}{Member Function Documentation}{subsection.4.7.1}{}}
\@writefile{toc}{\contentsline {subsubsection}{\numberline {4.7.1.1}OnCollisionEnter()}{18}{subsubsection.4.7.1.1}\protected@file@percent }
\newlabel{class_sub_game2_afaba6a6399e6ef6810799b38b6fda241}{{4.7.1.1}{18}{\texorpdfstring {OnCollisionEnter()}{OnCollisionEnter()}}{subsubsection.4.7.1.1}{}}
\@writefile{toc}{\contentsline {subsubsection}{\numberline {4.7.1.2}Start()}{19}{subsubsection.4.7.1.2}\protected@file@percent }
\newlabel{class_sub_game2_a20cd2516de59b9345ce1ab9b67cca8b6}{{4.7.1.2}{19}{\texorpdfstring {Start()}{Start()}}{subsubsection.4.7.1.2}{}}
\@writefile{toc}{\contentsline {subsubsection}{\numberline {4.7.1.3}Update()}{19}{subsubsection.4.7.1.3}\protected@file@percent }
\@writefile{toc}{\contentsline {subsection}{\numberline {4.7.2}Member Data Documentation}{19}{subsection.4.7.2}\protected@file@percent }
\newlabel{class_sub_game2_ae156716f1529a36c17be2452d8c6d8e7}{{4.7.2}{19}{Member Data Documentation}{subsection.4.7.2}{}}
\@writefile{toc}{\contentsline {subsubsection}{\numberline {4.7.2.1}bola\_azul}{19}{subsubsection.4.7.2.1}\protected@file@percent }
\newlabel{class_sub_game2_a11ffa9ea2ace46e935f6dcf8beb89aed}{{4.7.2.1}{19}{\texorpdfstring {bola\_azul}{bola\_azul}}{subsubsection.4.7.2.1}{}}
\@writefile{toc}{\contentsline {subsubsection}{\numberline {4.7.2.2}bola\_branca}{19}{subsubsection.4.7.2.2}\protected@file@percent }
\newlabel{class_sub_game2_a16b06ca7954b7d49964818a99fa65106}{{4.7.2.2}{19}{\texorpdfstring {bola\_branca}{bola\_branca}}{subsubsection.4.7.2.2}{}}
\@writefile{toc}{\contentsline {subsubsection}{\numberline {4.7.2.3}bola\_preta}{19}{subsubsection.4.7.2.3}\protected@file@percent }
\newlabel{class_sub_game2_ab25ae13ea6168f8e9d2a09927df153ba}{{4.7.2.3}{19}{\texorpdfstring {bola\_preta}{bola\_preta}}{subsubsection.4.7.2.3}{}}
\@writefile{toc}{\contentsline {subsubsection}{\numberline {4.7.2.4}bola\_roxa}{19}{subsubsection.4.7.2.4}\protected@file@percent }
\newlabel{class_sub_game2_a41428bb5f423b949a17e3566b22565da}{{4.7.2.4}{19}{\texorpdfstring {bola\_roxa}{bola\_roxa}}{subsubsection.4.7.2.4}{}}
\@writefile{toc}{\contentsline {subsubsection}{\numberline {4.7.2.5}bola\_verde}{20}{subsubsection.4.7.2.5}\protected@file@percent }
\newlabel{class_sub_game2_aaa077587a29aac2a1bed4ec9e9436b1e}{{4.7.2.5}{20}{\texorpdfstring {bola\_verde}{bola\_verde}}{subsubsection.4.7.2.5}{}}
\@writefile{toc}{\contentsline {subsubsection}{\numberline {4.7.2.6}bola\_vermelha}{20}{subsubsection.4.7.2.6}\protected@file@percent }
\newlabel{class_sub_game2_a4f9a583b54b46fdcf72b5dc285814a06}{{4.7.2.6}{20}{\texorpdfstring {bola\_vermelha}{bola\_vermelha}}{subsubsection.4.7.2.6}{}}
\@writefile{toc}{\contentsline {subsubsection}{\numberline {4.7.2.7}color}{20}{subsubsection.4.7.2.7}\protected@file@percent }
\newlabel{class_sub_game2_aad04e26a7e614483f1b96b6feddd10a3}{{4.7.2.7}{20}{\texorpdfstring {color}{color}}{subsubsection.4.7.2.7}{}}
\@writefile{toc}{\contentsline {subsubsection}{\numberline {4.7.2.8}fTimeIntervals}{20}{subsubsection.4.7.2.8}\protected@file@percent }
\newlabel{class_sub_game2_a806bd3f8ea53d14e0077f24219266b9a}{{4.7.2.8}{20}{\texorpdfstring {fTimeIntervals}{fTimeIntervals}}{subsubsection.4.7.2.8}{}}
\@writefile{toc}{\contentsline {subsubsection}{\numberline {4.7.2.9}fTimer}{20}{subsubsection.4.7.2.9}\protected@file@percent }
\newlabel{class_sub_game2_ac4b1f8b19128fba7dabdc4ccd0a1b7cc}{{4.7.2.9}{20}{\texorpdfstring {fTimer}{fTimer}}{subsubsection.4.7.2.9}{}}
\@writefile{toc}{\contentsline {subsubsection}{\numberline {4.7.2.10}stringAux}{20}{subsubsection.4.7.2.10}\protected@file@percent }
\newlabel{class_sub_game2_afbe046b9d01042c549f82a4959fddb2c}{{4.7.2.10}{20}{\texorpdfstring {stringAux}{stringAux}}{subsubsection.4.7.2.10}{}}
\@writefile{toc}{\contentsline {subsubsection}{\numberline {4.7.2.11}textDisplay}{21}{subsubsection.4.7.2.11}\protected@file@percent }
\@writefile{toc}{\contentsline {section}{\numberline {4.8}Sub\discretionary {\mbox  {\scriptsize  $\hookleftarrow  $}}{}{}Game3 Class Reference}{21}{section.4.8}\protected@file@percent }
\newlabel{class_sub_game3}{{4.8}{21}{Sub\+Game3 Class Reference}{section.4.8}{}}
\@writefile{toc}{\contentsline {subsection}{\numberline {4.8.1}Member Function Documentation}{22}{subsection.4.8.1}\protected@file@percent }
\newlabel{class_sub_game3_aa986014f41a670e0a87be68f948f30e1}{{4.8.1}{22}{Member Function Documentation}{subsection.4.8.1}{}}
\@writefile{toc}{\contentsline {subsubsection}{\numberline {4.8.1.1}OnCollisionEnter()}{22}{subsubsection.4.8.1.1}\protected@file@percent }
\newlabel{class_sub_game3_a366a5581576a2759c27631983c0f58c6}{{4.8.1.1}{22}{\texorpdfstring {OnCollisionEnter()}{OnCollisionEnter()}}{subsubsection.4.8.1.1}{}}
\@writefile{toc}{\contentsline {subsubsection}{\numberline {4.8.1.2}Start()}{22}{subsubsection.4.8.1.2}\protected@file@percent }
\newlabel{class_sub_game3_ad7594e788c0f7c210ed6b3acd1b90493}{{4.8.1.2}{22}{\texorpdfstring {Start()}{Start()}}{subsubsection.4.8.1.2}{}}
\@writefile{toc}{\contentsline {subsubsection}{\numberline {4.8.1.3}Update()}{22}{subsubsection.4.8.1.3}\protected@file@percent }
\newlabel{class_sub_game3_a7787d470e93e6c0f8472e4f9e7142339}{{4.8.1.3}{22}{\texorpdfstring {Update()}{Update()}}{subsubsection.4.8.1.3}{}}
\@writefile{toc}{\contentsline {subsubsection}{\numberline {4.8.1.4}waitfunction()}{22}{subsubsection.4.8.1.4}\protected@file@percent }
\@writefile{toc}{\contentsline {subsection}{\numberline {4.8.2}Member Data Documentation}{22}{subsection.4.8.2}\protected@file@percent }
\newlabel{class_sub_game3_ad39ac5dc8ec5bdf8a9c6842fea8a43bb}{{4.8.2}{22}{Member Data Documentation}{subsection.4.8.2}{}}
\@writefile{toc}{\contentsline {subsubsection}{\numberline {4.8.2.1}aux\_score}{22}{subsubsection.4.8.2.1}\protected@file@percent }
\newlabel{class_sub_game3_a3ac030de61aa99436c768f377fca81e3}{{4.8.2.1}{22}{\texorpdfstring {aux\_score}{aux\_score}}{subsubsection.4.8.2.1}{}}
\@writefile{toc}{\contentsline {subsubsection}{\numberline {4.8.2.2}strTag}{23}{subsubsection.4.8.2.2}\protected@file@percent }
\newlabel{class_sub_game3_a5478efa172280679e1c7449b94a4ef8a}{{4.8.2.2}{23}{\texorpdfstring {strTag}{strTag}}{subsubsection.4.8.2.2}{}}
\@writefile{toc}{\contentsline {subsubsection}{\numberline {4.8.2.3}strTag2}{23}{subsubsection.4.8.2.3}\protected@file@percent }
\newlabel{class_sub_game3_aea507614552c09d6271ab8680dd78bc2}{{4.8.2.3}{23}{\texorpdfstring {strTag2}{strTag2}}{subsubsection.4.8.2.3}{}}
\@writefile{toc}{\contentsline {subsubsection}{\numberline {4.8.2.4}strTag3}{23}{subsubsection.4.8.2.4}\protected@file@percent }
\newlabel{class_sub_game3_a5bfe8f0a996849db27ee1a01fb57e525}{{4.8.2.4}{23}{\texorpdfstring {strTag3}{strTag3}}{subsubsection.4.8.2.4}{}}
\@writefile{toc}{\contentsline {subsubsection}{\numberline {4.8.2.5}strTag4}{23}{subsubsection.4.8.2.5}\protected@file@percent }
\newlabel{class_sub_game3_a3ce5e3c6311ca4451ce306c86c0a8076}{{4.8.2.5}{23}{\texorpdfstring {strTag4}{strTag4}}{subsubsection.4.8.2.5}{}}
\@writefile{toc}{\contentsline {subsubsection}{\numberline {4.8.2.6}strTag\_aux}{23}{subsubsection.4.8.2.6}\protected@file@percent }
\@writefile{toc}{\contentsline {section}{\numberline {4.9}Sub\discretionary {\mbox  {\scriptsize  $\hookleftarrow  $}}{}{}Game4 Class Reference}{23}{section.4.9}\protected@file@percent }
\newlabel{class_sub_game4}{{4.9}{23}{Sub\+Game4 Class Reference}{section.4.9}{}}
\@writefile{toc}{\contentsline {subsection}{\numberline {4.9.1}Member Function Documentation}{24}{subsection.4.9.1}\protected@file@percent }
\newlabel{class_sub_game4_a72ad81cb270bc9513b88558e31f21e4e}{{4.9.1}{24}{Member Function Documentation}{subsection.4.9.1}{}}
\@writefile{toc}{\contentsline {subsubsection}{\numberline {4.9.1.1}OnCollisionEnter()}{24}{subsubsection.4.9.1.1}\protected@file@percent }
\newlabel{class_sub_game4_ae6dbbc478d372e120e37daa38acb6ecc}{{4.9.1.1}{24}{\texorpdfstring {OnCollisionEnter()}{OnCollisionEnter()}}{subsubsection.4.9.1.1}{}}
\@writefile{toc}{\contentsline {subsubsection}{\numberline {4.9.1.2}start()}{25}{subsubsection.4.9.1.2}\protected@file@percent }
\newlabel{class_sub_game4_afd00acf3a364d78492b5511a905d075b}{{4.9.1.2}{25}{\texorpdfstring {start()}{start()}}{subsubsection.4.9.1.2}{}}
\@writefile{toc}{\contentsline {subsubsection}{\numberline {4.9.1.3}Update()}{25}{subsubsection.4.9.1.3}\protected@file@percent }
\newlabel{class_sub_game4_acb2aa2e48ed569728d01fd95b77c55f3}{{4.9.1.3}{25}{\texorpdfstring {Update()}{Update()}}{subsubsection.4.9.1.3}{}}
\@writefile{toc}{\contentsline {subsubsection}{\numberline {4.9.1.4}WaitForSec\_right()}{25}{subsubsection.4.9.1.4}\protected@file@percent }
\newlabel{class_sub_game4_a8c1220dd4dc8d7eeb24d5836b5589e15}{{4.9.1.4}{25}{\texorpdfstring {WaitForSec\_right()}{WaitForSec\_right()}}{subsubsection.4.9.1.4}{}}
\@writefile{toc}{\contentsline {subsubsection}{\numberline {4.9.1.5}WaitForSec\_wrong()}{25}{subsubsection.4.9.1.5}\protected@file@percent }
\@writefile{toc}{\contentsline {subsection}{\numberline {4.9.2}Member Data Documentation}{25}{subsection.4.9.2}\protected@file@percent }
\newlabel{class_sub_game4_a5dbf2ce70eebea5cebdf600798ea2f14}{{4.9.2}{25}{Member Data Documentation}{subsection.4.9.2}{}}
\@writefile{toc}{\contentsline {subsubsection}{\numberline {4.9.2.1}fTimer}{25}{subsubsection.4.9.2.1}\protected@file@percent }
\newlabel{class_sub_game4_ae6c7818e6e9e098dc798f865140ec161}{{4.9.2.1}{25}{\texorpdfstring {fTimer}{fTimer}}{subsubsection.4.9.2.1}{}}
\@writefile{toc}{\contentsline {subsubsection}{\numberline {4.9.2.2}nextlvl}{25}{subsubsection.4.9.2.2}\protected@file@percent }
\newlabel{class_sub_game4_a744f10843bacbb3fcbce04ee4e29fe34}{{4.9.2.2}{25}{\texorpdfstring {nextlvl}{nextlvl}}{subsubsection.4.9.2.2}{}}
\@writefile{toc}{\contentsline {subsubsection}{\numberline {4.9.2.3}tag\_right}{26}{subsubsection.4.9.2.3}\protected@file@percent }
\newlabel{class_sub_game4_a206587252c7a8d9646b81a2c325a92b2}{{4.9.2.3}{26}{\texorpdfstring {tag\_right}{tag\_right}}{subsubsection.4.9.2.3}{}}
\@writefile{toc}{\contentsline {subsubsection}{\numberline {4.9.2.4}tag\_wrong}{26}{subsubsection.4.9.2.4}\protected@file@percent }
\newlabel{class_sub_game4_ae13b4189417f66133432ed6edcd486c0}{{4.9.2.4}{26}{\texorpdfstring {tag\_wrong}{tag\_wrong}}{subsubsection.4.9.2.4}{}}
\@writefile{toc}{\contentsline {subsubsection}{\numberline {4.9.2.5}uiObject\_right}{26}{subsubsection.4.9.2.5}\protected@file@percent }
\newlabel{class_sub_game4_a58780430590d0b27b40db33e734ac148}{{4.9.2.5}{26}{\texorpdfstring {uiObject\_right}{uiObject\_right}}{subsubsection.4.9.2.5}{}}
\@writefile{toc}{\contentsline {subsubsection}{\numberline {4.9.2.6}uiObject\_wrong}{26}{subsubsection.4.9.2.6}\protected@file@percent }
\@writefile{toc}{\contentsline {section}{\numberline {4.10}Sub\discretionary {\mbox  {\scriptsize  $\hookleftarrow  $}}{}{}Game5 Class Reference}{26}{section.4.10}\protected@file@percent }
\newlabel{class_sub_game5}{{4.10}{26}{Sub\+Game5 Class Reference}{section.4.10}{}}
\@writefile{toc}{\contentsline {subsection}{\numberline {4.10.1}Member Function Documentation}{27}{subsection.4.10.1}\protected@file@percent }
\newlabel{class_sub_game5_a8d09921f1c0d6cb0c0fca114a3b6734a}{{4.10.1}{27}{Member Function Documentation}{subsection.4.10.1}{}}
\@writefile{toc}{\contentsline {subsubsection}{\numberline {4.10.1.1}OnCollisionEnter()}{27}{subsubsection.4.10.1.1}\protected@file@percent }
\newlabel{class_sub_game5_ae36f6342aba4c27896481cfd825a1ccc}{{4.10.1.1}{27}{\texorpdfstring {OnCollisionEnter()}{OnCollisionEnter()}}{subsubsection.4.10.1.1}{}}
\@writefile{toc}{\contentsline {subsubsection}{\numberline {4.10.1.2}start()}{27}{subsubsection.4.10.1.2}\protected@file@percent }
\newlabel{class_sub_game5_ad6de811a8d1c49ebed43a2c2152f1eb1}{{4.10.1.2}{27}{\texorpdfstring {start()}{start()}}{subsubsection.4.10.1.2}{}}
\@writefile{toc}{\contentsline {subsubsection}{\numberline {4.10.1.3}WaitForSec\_right()}{28}{subsubsection.4.10.1.3}\protected@file@percent }
\newlabel{class_sub_game5_a20bdced92a82a76964baaa57a8378098}{{4.10.1.3}{28}{\texorpdfstring {WaitForSec\_right()}{WaitForSec\_right()}}{subsubsection.4.10.1.3}{}}
\@writefile{toc}{\contentsline {subsubsection}{\numberline {4.10.1.4}WaitForSec\_wrong()}{28}{subsubsection.4.10.1.4}\protected@file@percent }
\@writefile{toc}{\contentsline {subsection}{\numberline {4.10.2}Member Data Documentation}{28}{subsection.4.10.2}\protected@file@percent }
\newlabel{class_sub_game5_a185a08e4a1f03e50622f5e9fa5d06ab5}{{4.10.2}{28}{Member Data Documentation}{subsection.4.10.2}{}}
\@writefile{toc}{\contentsline {subsubsection}{\numberline {4.10.2.1}tag\_right}{28}{subsubsection.4.10.2.1}\protected@file@percent }
\newlabel{class_sub_game5_a7fbddf5fb83676f86537bf7601ec4ab8}{{4.10.2.1}{28}{\texorpdfstring {tag\_right}{tag\_right}}{subsubsection.4.10.2.1}{}}
\@writefile{toc}{\contentsline {subsubsection}{\numberline {4.10.2.2}tag\_wrong}{28}{subsubsection.4.10.2.2}\protected@file@percent }
\newlabel{class_sub_game5_a52f476e5f9f943dbc7b51a7c66c9b174}{{4.10.2.2}{28}{\texorpdfstring {tag\_wrong}{tag\_wrong}}{subsubsection.4.10.2.2}{}}
\@writefile{toc}{\contentsline {subsubsection}{\numberline {4.10.2.3}uiObject\_right}{28}{subsubsection.4.10.2.3}\protected@file@percent }
\newlabel{class_sub_game5_ac18337f53fadbe7b62e682cf22f8c8c9}{{4.10.2.3}{28}{\texorpdfstring {uiObject\_right}{uiObject\_right}}{subsubsection.4.10.2.3}{}}
\@writefile{toc}{\contentsline {subsubsection}{\numberline {4.10.2.4}uiObject\_wrong}{28}{subsubsection.4.10.2.4}\protected@file@percent }
\@writefile{toc}{\contentsline {section}{\numberline {4.11}Submit\discretionary {\mbox  {\scriptsize  $\hookleftarrow  $}}{}{}Button Class Reference}{29}{section.4.11}\protected@file@percent }
\newlabel{class_submit_button}{{4.11}{29}{Submit\+Button Class Reference}{section.4.11}{}}
\@writefile{toc}{\contentsline {subsection}{\numberline {4.11.1}Member Function Documentation}{29}{subsection.4.11.1}\protected@file@percent }
\newlabel{class_submit_button_ab929f8f94414e519867bbaefd00bccb7}{{4.11.1}{29}{Member Function Documentation}{subsection.4.11.1}{}}
\@writefile{toc}{\contentsline {subsubsection}{\numberline {4.11.1.1}CreateText()}{29}{subsubsection.4.11.1.1}\protected@file@percent }
\newlabel{class_submit_button_a2f20cb59232d884a152efc286abd68ea}{{4.11.1.1}{29}{\texorpdfstring {CreateText()}{CreateText()}}{subsubsection.4.11.1.1}{}}
\@writefile{toc}{\contentsline {subsubsection}{\numberline {4.11.1.2}SubmitName()}{29}{subsubsection.4.11.1.2}\protected@file@percent }
\@writefile{toc}{\contentsline {subsection}{\numberline {4.11.2}Member Data Documentation}{30}{subsection.4.11.2}\protected@file@percent }
\newlabel{class_submit_button_a4c85363773169aa92bf3fb4bae88fa83}{{4.11.2}{30}{Member Data Documentation}{subsection.4.11.2}{}}
\@writefile{toc}{\contentsline {subsubsection}{\numberline {4.11.2.1}\_path}{30}{subsubsection.4.11.2.1}\protected@file@percent }
\newlabel{class_submit_button_a2c8e1d54e9987e3a2ff3266726595604}{{4.11.2.1}{30}{\texorpdfstring {\_path}{\_path}}{subsubsection.4.11.2.1}{}}
\@writefile{toc}{\contentsline {subsubsection}{\numberline {4.11.2.2}aux\_name}{30}{subsubsection.4.11.2.2}\protected@file@percent }
\newlabel{class_submit_button_a6880f06fda252094e0f909fa253f7c59}{{4.11.2.2}{30}{\texorpdfstring {aux\_name}{aux\_name}}{subsubsection.4.11.2.2}{}}
\@writefile{toc}{\contentsline {subsubsection}{\numberline {4.11.2.3}name}{30}{subsubsection.4.11.2.3}\protected@file@percent }
\@writefile{toc}{\contentsline {section}{\numberline {4.12}Timer\discretionary {\mbox  {\scriptsize  $\hookleftarrow  $}}{}{}Function Class Reference}{30}{section.4.12}\protected@file@percent }
\newlabel{class_timer_function}{{4.12}{30}{Timer\+Function Class Reference}{section.4.12}{}}
\@writefile{toc}{\contentsline {subsection}{\numberline {4.12.1}Member Function Documentation}{31}{subsection.4.12.1}\protected@file@percent }
\newlabel{class_timer_function_adee37516bb22c012dc95fbe90fe6b279}{{4.12.1}{31}{Member Function Documentation}{subsection.4.12.1}{}}
\@writefile{toc}{\contentsline {subsubsection}{\numberline {4.12.1.1}Start()}{31}{subsubsection.4.12.1.1}\protected@file@percent }
\newlabel{class_timer_function_a65f1e12e903054bffe99e17332f1fdcc}{{4.12.1.1}{31}{\texorpdfstring {Start()}{Start()}}{subsubsection.4.12.1.1}{}}
\@writefile{toc}{\contentsline {subsubsection}{\numberline {4.12.1.2}TimerTake()}{31}{subsubsection.4.12.1.2}\protected@file@percent }
\newlabel{class_timer_function_ad0f0f821de967fcbd10a95798c54a024}{{4.12.1.2}{31}{\texorpdfstring {TimerTake()}{TimerTake()}}{subsubsection.4.12.1.2}{}}
\@writefile{toc}{\contentsline {subsubsection}{\numberline {4.12.1.3}Update()}{31}{subsubsection.4.12.1.3}\protected@file@percent }
\@writefile{toc}{\contentsline {subsection}{\numberline {4.12.2}Member Data Documentation}{31}{subsection.4.12.2}\protected@file@percent }
\newlabel{class_timer_function_a70826c4c6df7746c5e7c67f2778165cc}{{4.12.2}{31}{Member Data Documentation}{subsection.4.12.2}{}}
\@writefile{toc}{\contentsline {subsubsection}{\numberline {4.12.2.1}secondsLeft}{31}{subsubsection.4.12.2.1}\protected@file@percent }
\newlabel{class_timer_function_affb3e3eaebdb8ca4eac2e3f8440acf40}{{4.12.2.1}{31}{\texorpdfstring {secondsLeft}{secondsLeft}}{subsubsection.4.12.2.1}{}}
\@writefile{toc}{\contentsline {subsubsection}{\numberline {4.12.2.2}takingAway}{32}{subsubsection.4.12.2.2}\protected@file@percent }
\newlabel{class_timer_function_a1851ea2910227c89d99a2475c6ee9186}{{4.12.2.2}{32}{\texorpdfstring {takingAway}{takingAway}}{subsubsection.4.12.2.2}{}}
\@writefile{toc}{\contentsline {subsubsection}{\numberline {4.12.2.3}textDisplay}{32}{subsubsection.4.12.2.3}\protected@file@percent }
\@writefile{toc}{\contentsline {section}{\numberline {4.13}volume\discretionary {\mbox  {\scriptsize  $\hookleftarrow  $}}{}{}Changer\discretionary {\mbox  {\scriptsize  $\hookleftarrow  $}}{}{}Script Class Reference}{32}{section.4.13}\protected@file@percent }
\newlabel{classvolume_changer_script}{{4.13}{32}{volume\+Changer\+Script Class Reference}{section.4.13}{}}
\@writefile{toc}{\contentsline {subsection}{\numberline {4.13.1}Member Function Documentation}{32}{subsection.4.13.1}\protected@file@percent }
\newlabel{classvolume_changer_script_ad4050654030164eb30cc0305d28e5976}{{4.13.1}{32}{Member Function Documentation}{subsection.4.13.1}{}}
\@writefile{toc}{\contentsline {subsubsection}{\numberline {4.13.1.1}MyUpdate()}{33}{subsubsection.4.13.1.1}\protected@file@percent }
\newlabel{classvolume_changer_script_ab12e06d274378e0f2b6dbcc50e592506}{{4.13.1.1}{33}{\texorpdfstring {MyUpdate()}{MyUpdate()}}{subsubsection.4.13.1.1}{}}
\@writefile{toc}{\contentsline {subsubsection}{\numberline {4.13.1.2}OnDisable()}{33}{subsubsection.4.13.1.2}\protected@file@percent }
\newlabel{classvolume_changer_script_a6a78b76bc0835ab8a457efea08de2c69}{{4.13.1.2}{33}{\texorpdfstring {OnDisable()}{OnDisable()}}{subsubsection.4.13.1.2}{}}
\@writefile{toc}{\contentsline {subsubsection}{\numberline {4.13.1.3}OnEnable()}{33}{subsubsection.4.13.1.3}\protected@file@percent }
\@writefile{toc}{\contentsline {subsection}{\numberline {4.13.2}Member Data Documentation}{33}{subsection.4.13.2}\protected@file@percent }
\newlabel{classvolume_changer_script_a72d7d6ace3b379a3894a0865a390b5e4}{{4.13.2}{33}{Member Data Documentation}{subsection.4.13.2}{}}
\@writefile{toc}{\contentsline {subsubsection}{\numberline {4.13.2.1}musicVolumeController}{33}{subsubsection.4.13.2.1}\protected@file@percent }
\newlabel{classvolume_changer_script_a7ed12c1a5de1accb58d5a5acdffa4a12}{{4.13.2.1}{33}{\texorpdfstring {musicVolumeController}{musicVolumeController}}{subsubsection.4.13.2.1}{}}
\@writefile{toc}{\contentsline {subsubsection}{\numberline {4.13.2.2}SliderHandleValue}{33}{subsubsection.4.13.2.2}\protected@file@percent }
\@writefile{toc}{\contentsline {section}{\numberline {4.14}Warmup\discretionary {\mbox  {\scriptsize  $\hookleftarrow  $}}{}{}Class Class Reference}{34}{section.4.14}\protected@file@percent }
\newlabel{class_warmup_class}{{4.14}{34}{Warmup\+Class Class Reference}{section.4.14}{}}
\@writefile{toc}{\contentsline {subsection}{\numberline {4.14.1}Member Function Documentation}{34}{subsection.4.14.1}\protected@file@percent }
\newlabel{class_warmup_class_a84d06b7467a6bcf8f4e75019a2e8ce0c}{{4.14.1}{34}{Member Function Documentation}{subsection.4.14.1}{}}
\@writefile{toc}{\contentsline {subsubsection}{\numberline {4.14.1.1}OnCollisionEnter()}{34}{subsubsection.4.14.1.1}\protected@file@percent }
\newlabel{class_warmup_class_a93db2b467072083f16c8822c8706c95c}{{4.14.1.1}{34}{\texorpdfstring {OnCollisionEnter()}{OnCollisionEnter()}}{subsubsection.4.14.1.1}{}}
\@writefile{toc}{\contentsline {subsubsection}{\numberline {4.14.1.2}WaitForSec()}{34}{subsubsection.4.14.1.2}\protected@file@percent }
\@writefile{toc}{\contentsline {subsection}{\numberline {4.14.2}Member Data Documentation}{34}{subsection.4.14.2}\protected@file@percent }
\newlabel{class_warmup_class_a9bdc9774664f5a48b71dea1943c2f1e5}{{4.14.2}{34}{Member Data Documentation}{subsection.4.14.2}{}}
\@writefile{toc}{\contentsline {subsubsection}{\numberline {4.14.2.1}strTag}{34}{subsubsection.4.14.2.1}\protected@file@percent }
\@writefile{toc}{\contentsline {chapter}{\numberline {5}File Documentation}{35}{chapter.5}\protected@file@percent }
\@writefile{lof}{\addvspace {10\p@ }}
\@writefile{lot}{\addvspace {10\p@ }}
\@writefile{toc}{\contentsline {section}{\numberline {5.1}C\discretionary {\mbox  {\scriptsize  $\hookleftarrow  $}}{}{}:/\discretionary {\mbox  {\scriptsize  $\hookleftarrow  $}}{}{}Users/jddso/\discretionary {\mbox  {\scriptsize  $\hookleftarrow  $}}{}{}One\discretionary {\mbox  {\scriptsize  $\hookleftarrow  $}}{}{}Drive/\discretionary {\mbox  {\scriptsize  $\hookleftarrow  $}}{}{}Documentos/fun2helpelderly/\discretionary {\mbox  {\scriptsize  $\hookleftarrow  $}}{}{}Assets/\discretionary {\mbox  {\scriptsize  $\hookleftarrow  $}}{}{}Scripts/\discretionary {\mbox  {\scriptsize  $\hookleftarrow  $}}{}{}Create\discretionary {\mbox  {\scriptsize  $\hookleftarrow  $}}{}{}Spawner.cs File Reference}{35}{section.5.1}\protected@file@percent }
\newlabel{_create_spawner_8cs}{{5.1}{35}{C\+:/\+Users/jddso/\+One\+Drive/\+Documentos/fun2helpelderly/\+Assets/\+Scripts/\+Create\+Spawner.cs File Reference}{section.5.1}{}}
\@writefile{toc}{\contentsline {section}{\numberline {5.2}C\discretionary {\mbox  {\scriptsize  $\hookleftarrow  $}}{}{}:/\discretionary {\mbox  {\scriptsize  $\hookleftarrow  $}}{}{}Users/jddso/\discretionary {\mbox  {\scriptsize  $\hookleftarrow  $}}{}{}One\discretionary {\mbox  {\scriptsize  $\hookleftarrow  $}}{}{}Drive/\discretionary {\mbox  {\scriptsize  $\hookleftarrow  $}}{}{}Documentos/fun2helpelderly/\discretionary {\mbox  {\scriptsize  $\hookleftarrow  $}}{}{}Assets/\discretionary {\mbox  {\scriptsize  $\hookleftarrow  $}}{}{}Scripts/\discretionary {\mbox  {\scriptsize  $\hookleftarrow  $}}{}{}Main\discretionary {\mbox  {\scriptsize  $\hookleftarrow  $}}{}{}Menu.cs File Reference}{35}{section.5.2}\protected@file@percent }
\newlabel{_main_menu_8cs}{{5.2}{35}{C\+:/\+Users/jddso/\+One\+Drive/\+Documentos/fun2helpelderly/\+Assets/\+Scripts/\+Main\+Menu.cs File Reference}{section.5.2}{}}
\@writefile{toc}{\contentsline {section}{\numberline {5.3}C\discretionary {\mbox  {\scriptsize  $\hookleftarrow  $}}{}{}:/\discretionary {\mbox  {\scriptsize  $\hookleftarrow  $}}{}{}Users/jddso/\discretionary {\mbox  {\scriptsize  $\hookleftarrow  $}}{}{}One\discretionary {\mbox  {\scriptsize  $\hookleftarrow  $}}{}{}Drive/\discretionary {\mbox  {\scriptsize  $\hookleftarrow  $}}{}{}Documentos/fun2helpelderly/\discretionary {\mbox  {\scriptsize  $\hookleftarrow  $}}{}{}Assets/\discretionary {\mbox  {\scriptsize  $\hookleftarrow  $}}{}{}Scripts/\discretionary {\mbox  {\scriptsize  $\hookleftarrow  $}}{}{}Score\discretionary {\mbox  {\scriptsize  $\hookleftarrow  $}}{}{}Function.cs File Reference}{35}{section.5.3}\protected@file@percent }
\newlabel{_score_function_8cs}{{5.3}{35}{C\+:/\+Users/jddso/\+One\+Drive/\+Documentos/fun2helpelderly/\+Assets/\+Scripts/\+Score\+Function.cs File Reference}{section.5.3}{}}
\@writefile{toc}{\contentsline {section}{\numberline {5.4}C\discretionary {\mbox  {\scriptsize  $\hookleftarrow  $}}{}{}:/\discretionary {\mbox  {\scriptsize  $\hookleftarrow  $}}{}{}Users/jddso/\discretionary {\mbox  {\scriptsize  $\hookleftarrow  $}}{}{}One\discretionary {\mbox  {\scriptsize  $\hookleftarrow  $}}{}{}Drive/\discretionary {\mbox  {\scriptsize  $\hookleftarrow  $}}{}{}Documentos/fun2helpelderly/\discretionary {\mbox  {\scriptsize  $\hookleftarrow  $}}{}{}Assets/\discretionary {\mbox  {\scriptsize  $\hookleftarrow  $}}{}{}Scripts/\discretionary {\mbox  {\scriptsize  $\hookleftarrow  $}}{}{}Serious\discretionary {\mbox  {\scriptsize  $\hookleftarrow  $}}{}{}Game.cs File Reference}{35}{section.5.4}\protected@file@percent }
\newlabel{_serious_game_8cs}{{5.4}{35}{C\+:/\+Users/jddso/\+One\+Drive/\+Documentos/fun2helpelderly/\+Assets/\+Scripts/\+Serious\+Game.cs File Reference}{section.5.4}{}}
\@writefile{toc}{\contentsline {section}{\numberline {5.5}C\discretionary {\mbox  {\scriptsize  $\hookleftarrow  $}}{}{}:/\discretionary {\mbox  {\scriptsize  $\hookleftarrow  $}}{}{}Users/jddso/\discretionary {\mbox  {\scriptsize  $\hookleftarrow  $}}{}{}One\discretionary {\mbox  {\scriptsize  $\hookleftarrow  $}}{}{}Drive/\discretionary {\mbox  {\scriptsize  $\hookleftarrow  $}}{}{}Documentos/fun2helpelderly/\discretionary {\mbox  {\scriptsize  $\hookleftarrow  $}}{}{}Assets/\discretionary {\mbox  {\scriptsize  $\hookleftarrow  $}}{}{}Scripts/\discretionary {\mbox  {\scriptsize  $\hookleftarrow  $}}{}{}Show\discretionary {\mbox  {\scriptsize  $\hookleftarrow  $}}{}{}High\discretionary {\mbox  {\scriptsize  $\hookleftarrow  $}}{}{}Score.cs File Reference}{36}{section.5.5}\protected@file@percent }
\newlabel{_show_high_score_8cs}{{5.5}{36}{C\+:/\+Users/jddso/\+One\+Drive/\+Documentos/fun2helpelderly/\+Assets/\+Scripts/\+Show\+High\+Score.cs File Reference}{section.5.5}{}}
\@writefile{toc}{\contentsline {section}{\numberline {5.6}C\discretionary {\mbox  {\scriptsize  $\hookleftarrow  $}}{}{}:/\discretionary {\mbox  {\scriptsize  $\hookleftarrow  $}}{}{}Users/jddso/\discretionary {\mbox  {\scriptsize  $\hookleftarrow  $}}{}{}One\discretionary {\mbox  {\scriptsize  $\hookleftarrow  $}}{}{}Drive/\discretionary {\mbox  {\scriptsize  $\hookleftarrow  $}}{}{}Documentos/fun2helpelderly/\discretionary {\mbox  {\scriptsize  $\hookleftarrow  $}}{}{}Assets/\discretionary {\mbox  {\scriptsize  $\hookleftarrow  $}}{}{}Scripts/\discretionary {\mbox  {\scriptsize  $\hookleftarrow  $}}{}{}Sub\discretionary {\mbox  {\scriptsize  $\hookleftarrow  $}}{}{}Game1.cs File Reference}{36}{section.5.6}\protected@file@percent }
\newlabel{_sub_game1_8cs}{{5.6}{36}{C\+:/\+Users/jddso/\+One\+Drive/\+Documentos/fun2helpelderly/\+Assets/\+Scripts/\+Sub\+Game1.cs File Reference}{section.5.6}{}}
\@writefile{toc}{\contentsline {section}{\numberline {5.7}C\discretionary {\mbox  {\scriptsize  $\hookleftarrow  $}}{}{}:/\discretionary {\mbox  {\scriptsize  $\hookleftarrow  $}}{}{}Users/jddso/\discretionary {\mbox  {\scriptsize  $\hookleftarrow  $}}{}{}One\discretionary {\mbox  {\scriptsize  $\hookleftarrow  $}}{}{}Drive/\discretionary {\mbox  {\scriptsize  $\hookleftarrow  $}}{}{}Documentos/fun2helpelderly/\discretionary {\mbox  {\scriptsize  $\hookleftarrow  $}}{}{}Assets/\discretionary {\mbox  {\scriptsize  $\hookleftarrow  $}}{}{}Scripts/\discretionary {\mbox  {\scriptsize  $\hookleftarrow  $}}{}{}Sub\discretionary {\mbox  {\scriptsize  $\hookleftarrow  $}}{}{}Game2.cs File Reference}{36}{section.5.7}\protected@file@percent }
\newlabel{_sub_game2_8cs}{{5.7}{36}{C\+:/\+Users/jddso/\+One\+Drive/\+Documentos/fun2helpelderly/\+Assets/\+Scripts/\+Sub\+Game2.cs File Reference}{section.5.7}{}}
\@writefile{toc}{\contentsline {section}{\numberline {5.8}C\discretionary {\mbox  {\scriptsize  $\hookleftarrow  $}}{}{}:/\discretionary {\mbox  {\scriptsize  $\hookleftarrow  $}}{}{}Users/jddso/\discretionary {\mbox  {\scriptsize  $\hookleftarrow  $}}{}{}One\discretionary {\mbox  {\scriptsize  $\hookleftarrow  $}}{}{}Drive/\discretionary {\mbox  {\scriptsize  $\hookleftarrow  $}}{}{}Documentos/fun2helpelderly/\discretionary {\mbox  {\scriptsize  $\hookleftarrow  $}}{}{}Assets/\discretionary {\mbox  {\scriptsize  $\hookleftarrow  $}}{}{}Scripts/\discretionary {\mbox  {\scriptsize  $\hookleftarrow  $}}{}{}Sub\discretionary {\mbox  {\scriptsize  $\hookleftarrow  $}}{}{}Game3.cs File Reference}{36}{section.5.8}\protected@file@percent }
\newlabel{_sub_game3_8cs}{{5.8}{36}{C\+:/\+Users/jddso/\+One\+Drive/\+Documentos/fun2helpelderly/\+Assets/\+Scripts/\+Sub\+Game3.cs File Reference}{section.5.8}{}}
\@writefile{toc}{\contentsline {section}{\numberline {5.9}C\discretionary {\mbox  {\scriptsize  $\hookleftarrow  $}}{}{}:/\discretionary {\mbox  {\scriptsize  $\hookleftarrow  $}}{}{}Users/jddso/\discretionary {\mbox  {\scriptsize  $\hookleftarrow  $}}{}{}One\discretionary {\mbox  {\scriptsize  $\hookleftarrow  $}}{}{}Drive/\discretionary {\mbox  {\scriptsize  $\hookleftarrow  $}}{}{}Documentos/fun2helpelderly/\discretionary {\mbox  {\scriptsize  $\hookleftarrow  $}}{}{}Assets/\discretionary {\mbox  {\scriptsize  $\hookleftarrow  $}}{}{}Scripts/\discretionary {\mbox  {\scriptsize  $\hookleftarrow  $}}{}{}Sub\discretionary {\mbox  {\scriptsize  $\hookleftarrow  $}}{}{}Game4.cs File Reference}{36}{section.5.9}\protected@file@percent }
\newlabel{_sub_game4_8cs}{{5.9}{36}{C\+:/\+Users/jddso/\+One\+Drive/\+Documentos/fun2helpelderly/\+Assets/\+Scripts/\+Sub\+Game4.cs File Reference}{section.5.9}{}}
\@writefile{toc}{\contentsline {section}{\numberline {5.10}C\discretionary {\mbox  {\scriptsize  $\hookleftarrow  $}}{}{}:/\discretionary {\mbox  {\scriptsize  $\hookleftarrow  $}}{}{}Users/jddso/\discretionary {\mbox  {\scriptsize  $\hookleftarrow  $}}{}{}One\discretionary {\mbox  {\scriptsize  $\hookleftarrow  $}}{}{}Drive/\discretionary {\mbox  {\scriptsize  $\hookleftarrow  $}}{}{}Documentos/fun2helpelderly/\discretionary {\mbox  {\scriptsize  $\hookleftarrow  $}}{}{}Assets/\discretionary {\mbox  {\scriptsize  $\hookleftarrow  $}}{}{}Scripts/\discretionary {\mbox  {\scriptsize  $\hookleftarrow  $}}{}{}Sub\discretionary {\mbox  {\scriptsize  $\hookleftarrow  $}}{}{}Game5.cs File Reference}{36}{section.5.10}\protected@file@percent }
\newlabel{_sub_game5_8cs}{{5.10}{36}{C\+:/\+Users/jddso/\+One\+Drive/\+Documentos/fun2helpelderly/\+Assets/\+Scripts/\+Sub\+Game5.cs File Reference}{section.5.10}{}}
\@writefile{toc}{\contentsline {section}{\numberline {5.11}C\discretionary {\mbox  {\scriptsize  $\hookleftarrow  $}}{}{}:/\discretionary {\mbox  {\scriptsize  $\hookleftarrow  $}}{}{}Users/jddso/\discretionary {\mbox  {\scriptsize  $\hookleftarrow  $}}{}{}One\discretionary {\mbox  {\scriptsize  $\hookleftarrow  $}}{}{}Drive/\discretionary {\mbox  {\scriptsize  $\hookleftarrow  $}}{}{}Documentos/fun2helpelderly/\discretionary {\mbox  {\scriptsize  $\hookleftarrow  $}}{}{}Assets/\discretionary {\mbox  {\scriptsize  $\hookleftarrow  $}}{}{}Scripts/\discretionary {\mbox  {\scriptsize  $\hookleftarrow  $}}{}{}Submit\discretionary {\mbox  {\scriptsize  $\hookleftarrow  $}}{}{}Button.cs File Reference}{37}{section.5.11}\protected@file@percent }
\newlabel{_submit_button_8cs}{{5.11}{37}{C\+:/\+Users/jddso/\+One\+Drive/\+Documentos/fun2helpelderly/\+Assets/\+Scripts/\+Submit\+Button.cs File Reference}{section.5.11}{}}
\@writefile{toc}{\contentsline {section}{\numberline {5.12}C\discretionary {\mbox  {\scriptsize  $\hookleftarrow  $}}{}{}:/\discretionary {\mbox  {\scriptsize  $\hookleftarrow  $}}{}{}Users/jddso/\discretionary {\mbox  {\scriptsize  $\hookleftarrow  $}}{}{}One\discretionary {\mbox  {\scriptsize  $\hookleftarrow  $}}{}{}Drive/\discretionary {\mbox  {\scriptsize  $\hookleftarrow  $}}{}{}Documentos/fun2helpelderly/\discretionary {\mbox  {\scriptsize  $\hookleftarrow  $}}{}{}Assets/\discretionary {\mbox  {\scriptsize  $\hookleftarrow  $}}{}{}Scripts/\discretionary {\mbox  {\scriptsize  $\hookleftarrow  $}}{}{}Timer\discretionary {\mbox  {\scriptsize  $\hookleftarrow  $}}{}{}Function.cs File Reference}{37}{section.5.12}\protected@file@percent }
\newlabel{_timer_function_8cs}{{5.12}{37}{C\+:/\+Users/jddso/\+One\+Drive/\+Documentos/fun2helpelderly/\+Assets/\+Scripts/\+Timer\+Function.cs File Reference}{section.5.12}{}}
\@writefile{toc}{\contentsline {section}{\numberline {5.13}C\discretionary {\mbox  {\scriptsize  $\hookleftarrow  $}}{}{}:/\discretionary {\mbox  {\scriptsize  $\hookleftarrow  $}}{}{}Users/jddso/\discretionary {\mbox  {\scriptsize  $\hookleftarrow  $}}{}{}One\discretionary {\mbox  {\scriptsize  $\hookleftarrow  $}}{}{}Drive/\discretionary {\mbox  {\scriptsize  $\hookleftarrow  $}}{}{}Documentos/fun2helpelderly/\discretionary {\mbox  {\scriptsize  $\hookleftarrow  $}}{}{}Assets/\discretionary {\mbox  {\scriptsize  $\hookleftarrow  $}}{}{}Scripts/volume\discretionary {\mbox  {\scriptsize  $\hookleftarrow  $}}{}{}Changer\discretionary {\mbox  {\scriptsize  $\hookleftarrow  $}}{}{}Script.cs File Reference}{37}{section.5.13}\protected@file@percent }
\newlabel{volume_changer_script_8cs}{{5.13}{37}{C\+:/\+Users/jddso/\+One\+Drive/\+Documentos/fun2helpelderly/\+Assets/\+Scripts/volume\+Changer\+Script.cs File Reference}{section.5.13}{}}
\@writefile{toc}{\contentsline {section}{\numberline {5.14}C\discretionary {\mbox  {\scriptsize  $\hookleftarrow  $}}{}{}:/\discretionary {\mbox  {\scriptsize  $\hookleftarrow  $}}{}{}Users/jddso/\discretionary {\mbox  {\scriptsize  $\hookleftarrow  $}}{}{}One\discretionary {\mbox  {\scriptsize  $\hookleftarrow  $}}{}{}Drive/\discretionary {\mbox  {\scriptsize  $\hookleftarrow  $}}{}{}Documentos/fun2helpelderly/\discretionary {\mbox  {\scriptsize  $\hookleftarrow  $}}{}{}Assets/\discretionary {\mbox  {\scriptsize  $\hookleftarrow  $}}{}{}Scripts/\discretionary {\mbox  {\scriptsize  $\hookleftarrow  $}}{}{}Warmup\discretionary {\mbox  {\scriptsize  $\hookleftarrow  $}}{}{}Class.cs File Reference}{37}{section.5.14}\protected@file@percent }
\newlabel{_warmup_class_8cs}{{5.14}{37}{C\+:/\+Users/jddso/\+One\+Drive/\+Documentos/fun2helpelderly/\+Assets/\+Scripts/\+Warmup\+Class.cs File Reference}{section.5.14}{}}
\@writefile{toc}{\contentsline {chapter}{Index}{39}{section*.65}\protected@file@percent }
\gdef \@abspage@last{47}
